{
    "/app.js": "/app.js?id=a2deab14d4033bd26d7f",
    "/app.css": "/app.css?id=e76ff335572573b153d4",
    "/vendor.js": "/vendor.js?id=06e858f0eddd7e9cb1ae",
    "/manifest.js": "/manifest.js?id=8dc6cd78606fe58b6628"
}